-------------------------------------------------------------------------------
Test set: com.ifpb.deploymentsd.DeploymentsdApplicationTests
-------------------------------------------------------------------------------
Tests run: 1, Failures: 0, Errors: 0, Skipped: 0, Time elapsed: 2.05 s - in com.ifpb.deploymentsd.DeploymentsdApplicationTests
